nl/mdijkstra/homeinventory/service/api/items/model/Items.class
nl/mdijkstra/homeinventory/service/api/items/controller/ItemsController.class
nl/mdijkstra/homeinventory/service/api/users/endpoint/UsersEndpoint.class
nl/mdijkstra/homeinventory/service/api/users/model/Users.class
nl/mdijkstra/homeinventory/service/api/inventories/endpoint/InventoriesEndpoint.class
nl/mdijkstra/homeinventory/service/api/items/endpoint/ItemsEndpoint.class
nl/mdijkstra/homeinventory/service/api/categories/controller/CategoriesController.class
nl/mdijkstra/homeinventory/service/api/locations/detailedlocations/service/DetailedLocationsService.class
nl/mdijkstra/homeinventory/service/api/categories/subcategories/endpoint/SubCategoriesEndpoint.class
nl/mdijkstra/homeinventory/service/api/categories/model/Categories.class
nl/mdijkstra/homeinventory/service/api/inventories/service/InventoriesService.class
nl/mdijkstra/homeinventory/service/api/users/controller/UsersController.class
nl/mdijkstra/homeinventory/service/api/locations/detailedlocations/controller/DetailedLocationsController.class
nl/mdijkstra/homeinventory/service/api/locations/detailedlocations/endpoint/DetailedLocationsEndpoint.class
nl/mdijkstra/homeinventory/service/api/categories/endpoint/CategoriesEndpoint.class
nl/mdijkstra/homeinventory/service/api/items/service/ItemsService.class
nl/mdijkstra/homeinventory/service/api/categories/subcategories/service/SubCategoriesService.class
nl/mdijkstra/homeinventory/service/api/locations/detailedlocations/model/DetailedLocations.class
nl/mdijkstra/homeinventory/service/api/categories/service/CategoriesService.class
nl/mdijkstra/homeinventory/service/api/locations/controller/LocationsController.class
nl/mdijkstra/homeinventory/service/api/inventories/model/Inventories.class
nl/mdijkstra/homeinventory/service/api/locations/service/LocationsService.class
nl/mdijkstra/homeinventory/service/api/locations/model/Locations.class
nl/mdijkstra/homeinventory/service/api/locations/endpoint/LocationsEndpoint.class
nl/mdijkstra/homeinventory/service/api/users/service/UsersService.class
nl/mdijkstra/homeinventory/service/api/inventories/controller/InventoriesController.class
nl/mdijkstra/homeinventory/service/api/categories/subcategories/controller/SubCategoriesController.class
nl/mdijkstra/homeinventory/service/api/categories/subcategories/model/SubCategories.class
